<?xml version="1.0" encoding="utf-8"?>
<!-- Generator: Adobe Illustrator 22.1.0, SVG Export Plug-In . SVG Version: 6.00 Build 0)  -->
<svg version="1.1" id="Capa_1" xmlns="http://www.w3.org/2000/svg" xmlns:xlink="http://www.w3.org/1999/xlink" x="0px" y="0px"
	 viewBox="0 0 63.9 50" style="enable-background:new 0 0 63.9 50;" xml:space="preserve">
<style type="text/css">
	.st0{fill:#54BEC9;}
</style>
<g>
	<path class="st0" d="M62.6,30.6c-0.8-0.4-1.8-0.3-2.7,0.3L42.2,42c-0.5,0.3-0.6,1-0.3,1.5c0.3,0.5,1,0.6,1.5,0.3L61,32.7
		c0.4-0.2,0.6-0.2,0.6-0.2c0,0,0.2,0.2,0.2,0.6c0,1.2-0.9,2.8-1.9,3.4L42.8,47.3c-0.9,0.6-1.7,0.7-2.3,0.4c-0.5-0.3-0.9-1.1-0.9-2.2
		c0-2.7,2-6.3,4.3-7.7l19.5-12.3c0.3-0.2,0.5-0.5,0.5-0.9s-0.2-0.7-0.5-0.9L25.9,0.2c-0.3-0.2-0.8-0.2-1.1,0L5,12.6
		c-2.8,1.8-5,5.8-5,9.1v0.6c0,3.3,2.2,7.3,5,9.1l29.4,18.5c0.5,0.3,1.1,0.2,1.5-0.3c0.3-0.5,0.2-1.1-0.3-1.5L6.1,29.5
		c-2.2-1.4-4-4.7-4-7.3v-0.6c0-2.6,1.8-5.9,4-7.3L25.3,2.3l35.5,22.4L42.8,36.1c-2.9,1.9-5.2,6-5.2,9.5c0,1.9,0.7,3.3,1.9,4
		c0.5,0.3,1.1,0.4,1.6,0.4c0.9,0,1.8-0.3,2.8-0.9L61,38.3c1.6-1,2.9-3.3,2.9-5.2C63.9,32,63.4,31.1,62.6,30.6z"/>
	<path class="st0" d="M49.7,25.7c0.3,0,0.7-0.2,0.9-0.5c0.3-0.5,0.2-1.1-0.3-1.5L25.9,8.5c-0.5-0.3-1.1-0.2-1.5,0.3
		c-0.3,0.5-0.2,1.1,0.3,1.5l24.3,15.3C49.3,25.7,49.5,25.7,49.7,25.7z"/>
	<path class="st0" d="M45.5,28.5c0.4,0,0.7-0.2,0.9-0.5c0.3-0.5,0.2-1.1-0.3-1.5l-10.3-6.4c-0.5-0.3-1.1-0.2-1.5,0.3
		c-0.3,0.5-0.2,1.1,0.3,1.5l10.3,6.4C45.1,28.5,45.3,28.5,45.5,28.5z"/>
	<path class="st0" d="M31.4,22.9c-0.5-0.3-1.1-0.2-1.5,0.3c-0.3,0.5-0.2,1.1,0.3,1.5l10.4,6.5c0.2,0.1,0.4,0.2,0.6,0.2
		c0.4,0,0.7-0.2,0.9-0.5c0.3-0.5,0.2-1.1-0.3-1.5L31.4,22.9z"/>
	<path class="st0" d="M20.4,11.2l-8.8,5.5c-0.3,0.2-0.5,0.5-0.5,0.9c0,0.4,0.2,0.7,0.5,0.9L22.1,25c0.2,0.1,0.4,0.2,0.6,0.2
		c0.2,0,0.4-0.1,0.6-0.2l2.3-1.5c0.5-0.3,0.6-1,0.3-1.5c-0.3-0.5-1-0.6-1.5-0.3l-1.8,1.1l-8.4-5.2l6.8-4.3l8.3,5.2l-1,0.6
		c-0.5,0.3-0.6,1-0.3,1.5c0.3,0.5,1,0.6,1.5,0.3l2.4-1.5c0.3-0.2,0.5-0.5,0.5-0.9c0-0.4-0.2-0.7-0.5-0.9l-10.3-6.4
		C21.2,11,20.7,11,20.4,11.2z"/>
	<path class="st0" d="M37.9,33.6c0.3-0.5,0.2-1.1-0.3-1.5l-10.4-6.5c-0.5-0.3-1.1-0.2-1.5,0.3c-0.3,0.5-0.2,1.1,0.3,1.5L36.5,34
		c0.2,0.1,0.4,0.2,0.6,0.2C37.4,34.1,37.7,33.9,37.9,33.6z"/>
	<path class="st0" d="M7.5,20.1c-0.3,0.5-0.2,1.1,0.3,1.5l25.8,16c0.2,0.1,0.4,0.2,0.6,0.2c0.4,0,0.7-0.2,0.9-0.5
		c0.3-0.5,0.2-1.1-0.3-1.5L9,19.8C8.5,19.5,7.8,19.6,7.5,20.1z"/>
</g>
</svg>
